<?xml version="1.0" encoding="utf-8"?>
<!-- Generator: Adobe Illustrator 24.2.3, SVG Export Plug-In . SVG Version: 6.00 Build 0)  -->
<svg version="1.1" id="레이어_1" xmlns="http://www.w3.org/2000/svg" xmlns:xlink="http://www.w3.org/1999/xlink" x="0px"
	 y="0px" viewBox="0 0 56.2 39.8" style="enable-background:new 0 0 56.2 39.8;" xml:space="preserve">
<style type="text/css">
	.st0{fill:#888888;}
</style>
<g id="레이어_2_1_">
	<g id="레이어_1-2">
		<g id="레이어_2-2">
			<g id="레이어_1-2-2">
				<path class="st0" d="M1.1,5.4h54.1c0.4,0,0.8,0.3,0.8,0.6c0,0.1,0,0.3-0.1,0.4l-27,32.9c-0.3,0.3-0.8,0.4-1.2,0.1
					c-0.1,0-0.1-0.1-0.2-0.1L0.4,6.4C0.2,6.1,0.3,5.7,0.6,5.5C0.8,5.4,0.9,5.3,1.1,5.4z"/>
				<path class="st0" d="M55.8,5.7L28.1,39.4L0.4,5.7H55.8 M54.8,5H1.5C0.7,5,0.1,5.5,0,6.1c0,0.3,0.1,0.5,0.2,0.8l26.6,32.4
					c0.5,0.6,1.5,0.7,2.2,0.3c0.1-0.1,0.2-0.2,0.3-0.3L56,6.9c0.4-0.6,0.3-1.3-0.4-1.7C55.4,5.1,55.1,5,54.8,5z"/>
			</g>
		</g>
	</g>
</g>
</svg>
